{
  "project_info": {
    "project_number": "912070697638",
    "firebase_url": "https://tour-mate-5d1ea.firebaseio.com",
    "project_id": "tour-mate-5d1ea",
    "storage_bucket": "tour-mate-5d1ea.appspot.com"
  },
  "client": [
    {
      "client_info": {
        "mobilesdk_app_id": "1:912070697638:android:28a81f3bede598dfb20a67",
        "android_client_info": {
          "package_name": "com.bitm_project.tourmate"
        }
      },
      "oauth_client": [
        {
          "client_id": "912070697638-l1s3mncakelrd09j5ob33udjuus9fgts.apps.googleusercontent.com",
          "client_type": 1,
          "android_info": {
            "package_name": "com.bitm_project.tourmate",
            "certificate_hash": "5e0936061c7784eb8181e8cfc0866186e60625de"
          }
        },
        {
          "client_id": "912070697638-5o3vo68jrln44bpde8sb3qq5709tcq0m.apps.googleusercontent.com",
          "client_type": 3
        }
      ],
      "api_key": [
        {
          "current_key": "AIzaSyDDHRkZ8sQSOfxC73mPbNt7oYVrGXfmeJg"
        }
      ],
      "services": {
        "appinvite_service": {
          "other_platform_oauth_client": [
            {
              "client_id": "912070697638-5o3vo68jrln44bpde8sb3qq5709tcq0m.apps.googleusercontent.com",
              "client_type": 3
            }
          ]
        }
      }
    }
  ],
  "configuration_version": "1"
}